sum=0x44
j:2 t:1, Order:80 00 03 01 02, Lag:5778
にげる,こうたい,にげる,ぼうぎょ
にげる,たたかう,にげる,ぼうぎょ
j:3 t:1, Order:00 03 80 02 01, Lag:5846
j:4 t:1, Order:80 00 03 01 02, Lag:5778

j:5 t:1, Order:80 00 03 01 02, Lag:5789
j:7 t:1, Order:00 03 80 02 01, Lag:5846
j:9 t:1, Order:01 00 80 03 02, Lag:5928
j:10 t:1, Order:80 00 03 01 02, Lag:5778
j:11 t:1, Order:80 00 03 01 02, Lag:5789
j:13 t:1, Order:80 00 03 01 02, Lag:5789
j:15 t:1, Order:00 03 80 02 01, Lag:5846
j:17 t:1, Order:01 00 80 03 02, Lag:5928
j:19 t:1, Order:01 00 80 03 02, Lag:5928
sum=0x62
j:17 t:3, Order:01 80 02 00 03, Lag:5912
sum=0x63
j:17 t:3, Order:01 80 02 00 03, Lag:5912
sum=0x6a
j:15 t:0, Order:00 01 80 03 02, Lag:5862
j:17 t:0, Order:00 01 80 03 02, Lag:5928
sum=0x80
j:4 t:2, Order:00 02 01 03 80, Lag:5791
j:5 t:2, Order:00 02 01 03 80, Lag:5802
j:6 t:2, Order:00 02 01 03 80, Lag:5857
j:13 t:2, Order:00 02 01 03 80, Lag:5818
sum=0x81
j:4 t:2, Order:00 02 01 03 80, Lag:5791
j:5 t:2, Order:00 02 01 03 80, Lag:5802
j:6 t:2, Order:00 02 01 03 80, Lag:5857
j:13 t:2, Order:00 02 01 03 80, Lag:5818
sum=0x95
j:11 t:2, Order:01 03 02 00 80, Lag:5802
sum=0xa6
j:1 t:2, Order:80 00 03 01 02, Lag:5767
j:2 t:2, Order:80 01 00 02 03, Lag:5778
j:3 t:2, Order:80 01 00 02 03, Lag:5833
j:4 t:2, Order:80 01 00 02 03, Lag:5778
j:5 t:2, Order:02 80 01 03 00, Lag:5818
j:6 t:2, Order:03 02 00 01 80, Lag:5857
j:7 t:2, Order:80 01 00 02 03, Lag:5833
j:8 t:2, Order:80 01 00 02 03, Lag:5844
j:10 t:2, Order:80 01 00 02 03, Lag:5778
j:11 t:2, Order:02 80 01 03 00, Lag:5818
j:12 t:2, Order:03 02 00 01 80, Lag:5857
j:13 t:2, Order:02 80 01 03 00, Lag:5818
j:14 t:2, Order:80 01 00 02 03, Lag:5844
j:15 t:2, Order:80 00 03 01 02, Lag:5833
j:16 t:2, Order:03 02 00 01 80, Lag:5873
j:17 t:2, Order:80 01 00 02 03, Lag:5899
j:18 t:2, Order:80 01 00 02 03, Lag:5844
j:19 t:2, Order:80 01 00 02 03, Lag:5899
sum=0xa7
j:1 t:2, Order:80 00 03 01 02, Lag:5767
j:2 t:2, Order:80 01 00 02 03, Lag:5778
j:3 t:2, Order:80 01 00 02 03, Lag:5833
j:4 t:2, Order:80 01 00 02 03, Lag:5778
j:5 t:2, Order:02 80 01 03 00, Lag:5818
j:6 t:2, Order:03 02 00 01 80, Lag:5857
j:7 t:2, Order:80 01 00 02 03, Lag:5833
j:8 t:2, Order:80 01 00 02 03, Lag:5844
j:10 t:2, Order:80 01 00 02 03, Lag:5778
j:11 t:2, Order:02 80 01 03 00, Lag:5818
j:12 t:2, Order:03 02 00 01 80, Lag:5857
j:13 t:2, Order:02 80 01 03 00, Lag:5818
j:14 t:2, Order:80 01 00 02 03, Lag:5844
j:15 t:2, Order:80 00 03 01 02, Lag:5833
j:16 t:2, Order:03 02 00 01 80, Lag:5873
j:17 t:2, Order:80 01 00 02 03, Lag:5899
j:18 t:2, Order:80 01 00 02 03, Lag:5844
j:19 t:2, Order:80 01 00 02 03, Lag:5899
sum=0xc4
j:4 t:2, Order:02 01 03 00 80, Lag:5807
j:7 t:2, Order:01 02 80 03 00, Lag:5846
sum=0xda
j:7 t:2, Order:80 01 02 00 03, Lag:5833
j:17 t:2, Order:03 00 02 80 01, Lag:5912
sum=0xdb
j:7 t:2, Order:80 01 02 00 03, Lag:5833
j:17 t:2, Order:03 00 02 80 01, Lag:5912
sum=0xde
j:7 t:2, Order:80 01 02 00 03, Lag:5833
j:17 t:2, Order:03 00 02 80 01, Lag:5912
sum=0xf3
j:1 t:1, Order:02 80 03 00 01, Lag:5780
sum=0xff
j:1 t:1, Order:03 01 00 02 80, Lag:5780
j:2 t:1, Order:03 01 00 02 80, Lag:5807
j:4 t:1, Order:03 01 00 02 80, Lag:5791
j:6 t:1, Order:03 01 00 02 80, Lag:5857
j:7 t:1, Order:03 01 00 02 80, Lag:5846
j:8 t:1, Order:03 01 00 02 80, Lag:5873
j:10 t:1, Order:03 01 00 02 80, Lag:5791
j:12 t:1, Order:02 80 00 01 03, Lag:5857
j:14 t:1, Order:03 01 00 02 80, Lag:5857
j:16 t:1, Order:02 80 00 01 03, Lag:5857
j:17 t:1, Order:80 01 03 02 00, Lag:5899
j:18 t:1, Order:02 80 00 01 03, Lag:5873
